Introduction to Katie Li-Hsuan CHANG’s HOMEWORK1016
…
## [1] "/Users/katiechang/Desktop/test3.csv"

The function my_csv_reader reads all the csv files from the designated folder and returns the file names:

my_csv_reader ("../..")

## list()

The function multi_excel takes an excel file and reads through all the sheets inside:

multi_excel ("/Users/katiechang/Desktop/Ecole Polytechnique 2017 2018/R Python/Day2 03 October 2017/TD 3/jeux.xlsx")

## [[1]]
## # A tibble: 18,625 x 10
##     X__1 score_phrase                                                title
##    <dbl>        <chr>                                                <chr>
##  1     0      Amazing                              LittleBigPlanet PS Vita
##  2     1      Amazing LittleBigPlanet PS Vita -- Marvel Super Hero Edition
##  3     2        Great                                 Splice: Tree of Life
##  4     3        Great                                               NHL 13
##  5     4        Great                                               NHL 13
##  6     5         Good                            Total War Battles: Shogun
##  7     6        Awful                                  Double Dragon: Neon
##  8     7      Amazing                                         Guild Wars 2
##  9     8        Awful                                  Double Dragon: Neon
## 10     9         Good                            Total War Battles: Shogun
## # ... with 18,615 more rows, and 7 more variables: platform <chr>,
## #   score <chr>, genre <chr>, editors_choice <chr>, release_year <dbl>,
## #   release_month <dbl>, release_day <dbl>
## 
## [[2]]
…
